<svg width="400" height="748" viewBox="0 0 400 748" fill="none" xmlns="http://www.w3.org/2000/svg">
<path d="M0 56.5736C0 44.8685 0 39.0159 4.24624 32.8621C8.49247 26.7083 12.6348 25.1358 20.9193 21.9909C97.1202 -6.93578 293.502 -7.68486 376.721 21.8805C386.382 25.3129 391.213 27.0291 395.606 33.2525C400 39.4759 400 45.8958 400 58.7355V748H0V56.5736Z" fill="black" fill-opacity="0.08"/>
</svg>
